<svg xmlns="http://www.w3.org/2000/svg" viewBox="35.215 132 305.57 110.502">
  <defs>
    <style>
      .cls-1 {
        fill-rule: evenodd;
      }

      .cls-2 {
        fill: #fff;
      }
    </style>
  </defs>
  <g id="Group_31" data-name="Group 31" transform="translate(35.215 132)">
    <path id="Path_67" data-name="Path 67" class="cls-1" d="M0,5.934H305.57V-48.76H0Z" transform="translate(0 104.127)"/>
    <path id="Path_68" data-name="Path 68" class="cls-2" d="M28.609,4.333A106.332,106.332,0,0,1,17.08,3.755,25.547,25.547,0,0,1,8.02,1.21a14.245,14.245,0,0,1-5.9-5.668Q0-8.159,0-14.4t2.121-9.948a14.244,14.244,0,0,1,5.9-5.668,25.545,25.545,0,0,1,9.061-2.545,106.332,106.332,0,0,1,11.528-.578,106.332,106.332,0,0,1,11.528.578A25.546,25.546,0,0,1,49.2-30.02a14.244,14.244,0,0,1,5.9,5.668q2.12,3.7,2.121,9.948T55.1-4.457A14.245,14.245,0,0,1,49.2,1.21a25.548,25.548,0,0,1-9.061,2.545A106.332,106.332,0,0,1,28.609,4.333Zm0-11.1q5.552,0,9.446-.27a26.224,26.224,0,0,0,6.323-1.08,7.026,7.026,0,0,0,3.547-2.313A6.5,6.5,0,0,0,49.043-14.4a6.5,6.5,0,0,0-1.118-3.971,7.026,7.026,0,0,0-3.547-2.313,26.23,26.23,0,0,0-6.323-1.08q-3.894-.27-9.446-.27t-9.408.27a26.7,26.7,0,0,0-6.323,1.08,7.037,7.037,0,0,0-3.586,2.313A6.5,6.5,0,0,0,8.174-14.4a6.5,6.5,0,0,0,1.118,3.971A7.037,7.037,0,0,0,12.878-8.12,26.7,26.7,0,0,0,19.2-7.041Q23.057-6.771,28.609-6.771Z" transform="translate(0 106.169)"/>
    <path id="Path_69" data-name="Path 69" class="cls-2" d="M.955-35.382V-66.15h9.1v19.664H23.009V-64.993h9.1v18.507h23.9v11.1Z" transform="translate(0.125 101.853)"/>
    <path id="Path_70" data-name="Path 70" class="cls-2" d="M.955-66.957V-97.725h9.1v19.664H23.009V-96.568h9.1v18.507h23.9v11.1Z" transform="translate(0.125 97.725)"/>
    <path id="Path_71" data-name="Path 71" d="M71.327-77.317q0-5.9-1.4-8.589t-5.108-2.686a5.1,5.1,0,0,0-3.367,1.1,7.275,7.275,0,0,0-2.081,3.557,30.352,30.352,0,0,0-1.059,6.432q-.3,3.973-.3,9.724a94.468,94.468,0,0,0,.416,9.913A22.024,22.024,0,0,0,59.711-52a5.371,5.371,0,0,0,2.195,2.8,6.323,6.323,0,0,0,3.065.719,7.264,7.264,0,0,0,2.686-.492,4.555,4.555,0,0,0,2.157-1.968,12.8,12.8,0,0,0,1.438-4.162,37.971,37.971,0,0,0,.53-7.076h10.9A48.782,48.782,0,0,1,82-53.858a19.213,19.213,0,0,1-2.535,6.924A13.021,13.021,0,0,1,74.24-42.2a19.033,19.033,0,0,1-8.74,1.74q-6.13,0-9.762-2.081a13.978,13.978,0,0,1-5.562-5.789,25.071,25.071,0,0,1-2.5-8.892,104.361,104.361,0,0,1-.568-11.313,104.361,104.361,0,0,1,.568-11.313,25.071,25.071,0,0,1,2.5-8.892,13.978,13.978,0,0,1,5.562-5.789q3.632-2.081,9.762-2.081,5.827,0,9.194,1.892a12.866,12.866,0,0,1,5.032,4.805,16.648,16.648,0,0,1,2.081,6.281,51.665,51.665,0,0,1,.416,6.319Z" transform="translate(6.16 97.87)"/>
    <path id="Path_72" data-name="Path 72" d="M95.243-62h10.594l-5.221-24.292h-.151ZM93.805-95.677h13.47l14.3,54.032H110.227l-2.5-11.427H93.351l-2.5,11.427H79.5Z" transform="translate(10.395 97.993)"/>
    <path id="Path_73" data-name="Path 73" d="M120.26-95.677h16.195l7.718,38.14h.152l7.794-38.14h16.119v54.032h-9.989V-84.78H158.1l-9.61,43.135h-8.476L130.4-84.78h-.152v43.135H120.26Z" transform="translate(15.723 97.993)"/>
    <path id="Path_74" data-name="Path 74" d="M180.48-71.234h4.844a7.189,7.189,0,0,0,5.259-1.967q2-1.968,2-6.13,0-4.086-1.74-6.205t-5.827-2.119H180.48Zm-10.9-24.443h19.07a15.735,15.735,0,0,1,7,1.4,12.771,12.771,0,0,1,4.578,3.67,14.346,14.346,0,0,1,2.5,5.184,23.543,23.543,0,0,1,.756,5.94,19.318,19.318,0,0,1-1.248,7.3,13.23,13.23,0,0,1-3.48,5.032,14.583,14.583,0,0,1-5.411,2.951,23.732,23.732,0,0,1-7.038.984H180.48v21.567h-10.9Z" transform="translate(22.172 97.993)"/>
    <path id="Path_75" data-name="Path 75" d="M214.612-95.677v37.686a24.48,24.48,0,0,0,.265,3.746,8.474,8.474,0,0,0,.984,2.951,5.35,5.35,0,0,0,1.93,1.967,6.178,6.178,0,0,0,3.179.719,6.22,6.22,0,0,0,3.14-.719,5.263,5.263,0,0,0,1.967-1.967,8.473,8.473,0,0,0,.984-2.951,24.476,24.476,0,0,0,.265-3.746V-95.677h10.9v37.686a21.793,21.793,0,0,1-1.437,8.513,13.592,13.592,0,0,1-3.859,5.335,14.258,14.258,0,0,1-5.525,2.762,25.818,25.818,0,0,1-6.432.795,29.917,29.917,0,0,1-6.433-.681,13.317,13.317,0,0,1-5.524-2.611,13.264,13.264,0,0,1-3.86-5.3,22.749,22.749,0,0,1-1.437-8.816V-95.677Z" transform="translate(26.635 97.993)"/>
    <path id="Path_76" data-name="Path 76" d="M249.346-58.4v1.589a17.982,17.982,0,0,0,.3,3.443,6.021,6.021,0,0,0,1.134,2.611,5.648,5.648,0,0,0,2.195,1.665,8.846,8.846,0,0,0,3.557.605,6.966,6.966,0,0,0,4.5-1.627,6.1,6.1,0,0,0,2-5.032,9.022,9.022,0,0,0-.492-3.14,6.193,6.193,0,0,0-1.627-2.384,11.54,11.54,0,0,0-2.989-1.93,42.872,42.872,0,0,0-4.578-1.778,39.214,39.214,0,0,1-6.281-2.649,16.958,16.958,0,0,1-4.427-3.367,12.07,12.07,0,0,1-2.611-4.465,18.8,18.8,0,0,1-.832-5.865q0-8.022,4.465-11.957t12.258-3.935a26.643,26.643,0,0,1,6.7.795,14.033,14.033,0,0,1,5.3,2.573,12.034,12.034,0,0,1,3.48,4.541,15.973,15.973,0,0,1,1.25,6.622v1.513H262.211a10.83,10.83,0,0,0-1.363-5.94,5.014,5.014,0,0,0-4.54-2.081,7.569,7.569,0,0,0-3.027.53,5.1,5.1,0,0,0-1.93,1.4,4.846,4.846,0,0,0-.984,2.005,10.3,10.3,0,0,0-.265,2.346,7.8,7.8,0,0,0,1.059,4.2q1.06,1.7,4.541,3.14l8.4,3.632a27.734,27.734,0,0,1,5.033,2.838,13.565,13.565,0,0,1,3.179,3.178,10.583,10.583,0,0,1,1.626,3.746,20.948,20.948,0,0,1,.455,4.54q0,8.551-4.957,12.562t-13.81,4.011q-9.234,0-13.206-4.124T238.449-56.2V-58.4Z" transform="translate(31.176 97.87)"/>
    <path id="Path_77" data-name="Path 77" class="cls-2" d="M103.419-38.813h2.356v11.423h6.842v2.036h-9.2Z" transform="translate(13.522 105.427)"/>
    <path id="Path_78" data-name="Path 78" class="cls-2" d="M117.575-25.488a5.315,5.315,0,0,1-2.084-.386,4.449,4.449,0,0,1-1.546-1.065,4.568,4.568,0,0,1-.961-1.621,6.255,6.255,0,0,1-.329-2.074,6.2,6.2,0,0,1,.329-2.055,4.568,4.568,0,0,1,.961-1.621,4.45,4.45,0,0,1,1.546-1.065,5.317,5.317,0,0,1,2.084-.386,5.307,5.307,0,0,1,2.083.386A4.45,4.45,0,0,1,121.2-34.31a4.568,4.568,0,0,1,.961,1.621,6.2,6.2,0,0,1,.33,2.055,6.254,6.254,0,0,1-.33,2.074,4.568,4.568,0,0,1-.961,1.621,4.449,4.449,0,0,1-1.546,1.065A5.305,5.305,0,0,1,117.575-25.488Zm0-1.7a2.465,2.465,0,0,0,1.244-.3,2.623,2.623,0,0,0,.867-.792,3.47,3.47,0,0,0,.5-1.1,4.958,4.958,0,0,0,.159-1.254,4.994,4.994,0,0,0-.159-1.244,3.349,3.349,0,0,0-.5-1.1,2.665,2.665,0,0,0-.867-.782,2.465,2.465,0,0,0-1.244-.3,2.469,2.469,0,0,0-1.245.3,2.676,2.676,0,0,0-.867.782,3.324,3.324,0,0,0-.5,1.1,4.943,4.943,0,0,0-.161,1.244,4.908,4.908,0,0,0,.161,1.254,3.444,3.444,0,0,0,.5,1.1,2.634,2.634,0,0,0,.867.792A2.469,2.469,0,0,0,117.575-27.185Z" transform="translate(14.729 105.826)"/>
    <path id="Path_79" data-name="Path 79" class="cls-2" d="M129.907-32.237a2.017,2.017,0,0,0-.726-1.367,2.368,2.368,0,0,0-1.5-.462,3.09,3.09,0,0,0-.886.141,2.1,2.1,0,0,0-.867.528,2.97,2.97,0,0,0-.659,1.074,5.106,5.106,0,0,0-.263,1.8,5.23,5.23,0,0,0,.141,1.206,3.273,3.273,0,0,0,.452,1.074,2.444,2.444,0,0,0,.8.763,2.279,2.279,0,0,0,1.187.292,2.163,2.163,0,0,0,1.556-.584,2.718,2.718,0,0,0,.763-1.64h2.148a4.712,4.712,0,0,1-1.442,2.912,4.4,4.4,0,0,1-3.026,1.009,4.985,4.985,0,0,1-2.026-.386,4.294,4.294,0,0,1-1.479-1.056,4.489,4.489,0,0,1-.915-1.593,6.235,6.235,0,0,1-.311-2,6.822,6.822,0,0,1,.3-2.055,4.7,4.7,0,0,1,.9-1.668,4.234,4.234,0,0,1,1.5-1.112,5.06,5.06,0,0,1,2.1-.405,5.885,5.885,0,0,1,1.612.217,4.244,4.244,0,0,1,1.357.65,3.456,3.456,0,0,1,.97,1.093,3.725,3.725,0,0,1,.452,1.565Z" transform="translate(16.063 105.826)"/>
    <path id="Path_80" data-name="Path 80" class="cls-2" d="M141.1-27.92a1.143,1.143,0,0,0,.1.565.439.439,0,0,0,.406.17h.226a1.411,1.411,0,0,0,.3-.038v1.489c-.076.025-.173.053-.293.085s-.242.06-.368.085-.251.044-.377.057-.233.019-.321.019a2.073,2.073,0,0,1-1.093-.264,1.317,1.317,0,0,1-.565-.924,3.8,3.8,0,0,1-1.574.9,6.2,6.2,0,0,1-1.8.283,4.416,4.416,0,0,1-1.263-.179,3.331,3.331,0,0,1-1.065-.528,2.53,2.53,0,0,1-.735-.886,2.732,2.732,0,0,1-.272-1.254,2.9,2.9,0,0,1,.329-1.47,2.447,2.447,0,0,1,.867-.886,3.925,3.925,0,0,1,1.206-.462q.67-.141,1.348-.217a11.019,11.019,0,0,1,1.113-.16,5.221,5.221,0,0,0,.933-.16,1.43,1.43,0,0,0,.641-.349.96.96,0,0,0,.235-.707,1.1,1.1,0,0,0-.2-.679,1.333,1.333,0,0,0-.49-.405,2.124,2.124,0,0,0-.651-.188,5.2,5.2,0,0,0-.678-.047,2.7,2.7,0,0,0-1.489.377,1.47,1.47,0,0,0-.659,1.169h-2.15a3.247,3.247,0,0,1,.452-1.565,3.135,3.135,0,0,1,1.009-1,4.124,4.124,0,0,1,1.386-.528,8.24,8.24,0,0,1,1.583-.151,6.669,6.669,0,0,1,1.413.151,4.02,4.02,0,0,1,1.254.49,2.712,2.712,0,0,1,.9.877,2.4,2.4,0,0,1,.339,1.31Zm-2.15-2.715a2.605,2.605,0,0,1-1.207.386q-.716.066-1.433.2a4.6,4.6,0,0,0-.659.16,1.98,1.98,0,0,0-.565.283,1.233,1.233,0,0,0-.387.471,1.617,1.617,0,0,0-.141.707.9.9,0,0,0,.207.6,1.52,1.52,0,0,0,.5.386,2.307,2.307,0,0,0,.641.2,3.99,3.99,0,0,0,.631.057,3.506,3.506,0,0,0,.773-.094,2.583,2.583,0,0,0,.782-.32,2.078,2.078,0,0,0,.613-.575,1.458,1.458,0,0,0,.244-.858Z" transform="translate(17.312 105.826)"/>
    <path id="Path_81" data-name="Path 81" class="cls-2" d="M142.529-25.353h2.149V-38.813h-2.149Z" transform="translate(18.635 105.427)"/>
    <path id="Path_82" data-name="Path 82" class="cls-2" d="M152.064-25.353h2.356V-38.813h-2.356Z" transform="translate(19.882 105.427)"/>
    <path id="Path_83" data-name="Path 83" class="cls-2" d="M156.766-35.5H158.8v1.433l.037.038a3.6,3.6,0,0,1,1.282-1.272,3.417,3.417,0,0,1,1.753-.462,3.641,3.641,0,0,1,2.526.829,3.173,3.173,0,0,1,.924,2.488v6.692h-2.148v-6.126a2.644,2.644,0,0,0-.491-1.668,1.778,1.778,0,0,0-1.413-.518,2.338,2.338,0,0,0-.98.2,2.123,2.123,0,0,0-.735.547,2.568,2.568,0,0,0-.472.82,2.928,2.928,0,0,0-.17,1v5.749h-2.148Z" transform="translate(20.496 105.826)"/>
    <path id="Path_84" data-name="Path 84" class="cls-2" d="M173.3-32.237a2.013,2.013,0,0,0-.726-1.367,2.365,2.365,0,0,0-1.5-.462,3.083,3.083,0,0,0-.885.141,2.1,2.1,0,0,0-.867.528,2.956,2.956,0,0,0-.66,1.074,5.132,5.132,0,0,0-.263,1.8,5.293,5.293,0,0,0,.141,1.206,3.3,3.3,0,0,0,.452,1.074,2.447,2.447,0,0,0,.8.763,2.276,2.276,0,0,0,1.187.292,2.162,2.162,0,0,0,1.555-.584,2.718,2.718,0,0,0,.763-1.64h2.15a4.718,4.718,0,0,1-1.443,2.912,4.4,4.4,0,0,1-3.025,1.009,4.977,4.977,0,0,1-2.026-.386,4.3,4.3,0,0,1-1.48-1.056,4.489,4.489,0,0,1-.915-1.593,6.236,6.236,0,0,1-.311-2,6.822,6.822,0,0,1,.3-2.055,4.72,4.72,0,0,1,.9-1.668,4.239,4.239,0,0,1,1.5-1.112,5.054,5.054,0,0,1,2.1-.405,5.873,5.873,0,0,1,1.612.217,4.244,4.244,0,0,1,1.357.65A3.474,3.474,0,0,1,175-33.8a3.758,3.758,0,0,1,.452,1.565Z" transform="translate(21.737 105.826)"/>
    <path id="Path_85" data-name="Path 85" class="cls-2" d="M176.321-38.813h2.148v2.036h-2.148Zm0,3.714h2.148v9.746h-2.148Z" transform="translate(23.053 105.427)"/>
    <path id="Path_86" data-name="Path 86" class="cls-2" d="M189.856-25.353h-2.035v-1.32h-.037a2.554,2.554,0,0,1-1.263,1.216,4.281,4.281,0,0,1-1.754.368,4.65,4.65,0,0,1-2.007-.405,4.009,4.009,0,0,1-1.424-1.1,4.731,4.731,0,0,1-.848-1.649,7.139,7.139,0,0,1-.283-2.045,6.513,6.513,0,0,1,.358-2.281,4.549,4.549,0,0,1,.952-1.583,3.678,3.678,0,0,1,1.357-.914,4.314,4.314,0,0,1,1.555-.292,5.21,5.21,0,0,1,.924.085,4.055,4.055,0,0,1,.9.273,3.575,3.575,0,0,1,.8.481,2.693,2.693,0,0,1,.613.688h.037v-4.977h2.148Zm-7.5-4.769a4.777,4.777,0,0,0,.161,1.225A3.36,3.36,0,0,0,183-27.823a2.473,2.473,0,0,0,.838.754,2.447,2.447,0,0,0,1.207.283,2.41,2.41,0,0,0,1.235-.3,2.549,2.549,0,0,0,.848-.792,3.581,3.581,0,0,0,.491-1.1,4.958,4.958,0,0,0,.161-1.254,3.937,3.937,0,0,0-.726-2.526,2.392,2.392,0,0,0-1.97-.9,2.435,2.435,0,0,0-1.273.311,2.627,2.627,0,0,0-.848.811,3.393,3.393,0,0,0-.472,1.131A5.917,5.917,0,0,0,182.353-30.123Z" transform="translate(23.561 105.427)"/>
    <path id="Path_87" data-name="Path 87" class="cls-2" d="M197.887-31.483a3.44,3.44,0,0,0-.217-.98,2.606,2.606,0,0,0-.49-.82,2.425,2.425,0,0,0-.754-.565,2.219,2.219,0,0,0-.989-.217,2.589,2.589,0,0,0-1.028.2,2.358,2.358,0,0,0-.792.547,2.724,2.724,0,0,0-.528.82,2.876,2.876,0,0,0-.216,1.018Zm-5.014,1.414a3.76,3.76,0,0,0,.159,1.093,2.706,2.706,0,0,0,.482.924,2.3,2.3,0,0,0,.81.631,2.676,2.676,0,0,0,1.169.236,2.581,2.581,0,0,0,1.517-.405,2.39,2.39,0,0,0,.857-1.216H199.9a4.04,4.04,0,0,1-.585,1.414,4.064,4.064,0,0,1-1,1.046,4.32,4.32,0,0,1-1.311.641,5.274,5.274,0,0,1-1.517.217,5.156,5.156,0,0,1-2.035-.377,4.2,4.2,0,0,1-1.5-1.056,4.494,4.494,0,0,1-.924-1.621,6.6,6.6,0,0,1-.311-2.074,5.852,5.852,0,0,1,.33-1.97,5.019,5.019,0,0,1,.943-1.64,4.506,4.506,0,0,1,1.479-1.122,4.487,4.487,0,0,1,1.961-.415,4.365,4.365,0,0,1,2.064.481,4.522,4.522,0,0,1,1.517,1.272,5.163,5.163,0,0,1,.877,1.819,5.6,5.6,0,0,1,.141,2.121Z" transform="translate(24.936 105.826)"/>
    <path id="Path_88" data-name="Path 88" class="cls-2" d="M200.743-35.5h2.036v1.433l.037.038A3.6,3.6,0,0,1,204.1-35.3a3.414,3.414,0,0,1,1.753-.462,3.641,3.641,0,0,1,2.526.829,3.173,3.173,0,0,1,.924,2.488v6.692h-2.148v-6.126a2.651,2.651,0,0,0-.491-1.668,1.78,1.78,0,0,0-1.413-.518,2.334,2.334,0,0,0-.98.2,2.123,2.123,0,0,0-.735.547,2.568,2.568,0,0,0-.472.82,2.928,2.928,0,0,0-.17,1v5.749h-2.15Z" transform="translate(26.246 105.826)"/>
    <path id="Path_89" data-name="Path 89" class="cls-2" d="M209.779-35.191H211.4v-2.922h2.148v2.922h1.941v1.6h-1.941v5.2a5.373,5.373,0,0,0,.028.584,1.016,1.016,0,0,0,.132.415.632.632,0,0,0,.311.255,1.529,1.529,0,0,0,.565.085c.15,0,.3,0,.452-.009a2.233,2.233,0,0,0,.452-.066v1.659l-.7.075a6.306,6.306,0,0,1-.7.038,4.766,4.766,0,0,1-1.367-.16,1.821,1.821,0,0,1-.811-.471,1.627,1.627,0,0,1-.4-.782,5.891,5.891,0,0,1-.122-1.074v-5.749h-1.621Z" transform="translate(27.428 105.519)"/>
    <path id="Path_90" data-name="Path 90" class="cls-2" d="M67.018-21.658h3.318l3.713,10.537h.038l3.619-10.537h3.28V-8.2H78.743V-18.586h-.038L74.973-8.2H73.031L69.3-18.586h-.038V-8.2H67.018Z" transform="translate(8.762 107.67)"/>
    <path id="Path_91" data-name="Path 91" class="cls-2" d="M90.162-10.766a1.14,1.14,0,0,0,.1.565.437.437,0,0,0,.405.17H90.9a1.41,1.41,0,0,0,.3-.038v1.489q-.113.038-.292.085t-.368.085q-.188.038-.377.057t-.32.019A2.072,2.072,0,0,1,88.748-8.6a1.314,1.314,0,0,1-.565-.924,3.8,3.8,0,0,1-1.574.9,6.2,6.2,0,0,1-1.8.283,4.418,4.418,0,0,1-1.263-.179,3.316,3.316,0,0,1-1.065-.528,2.53,2.53,0,0,1-.735-.886,2.728,2.728,0,0,1-.273-1.254,2.9,2.9,0,0,1,.33-1.47,2.443,2.443,0,0,1,.867-.886A3.914,3.914,0,0,1,83.875-14q.669-.141,1.348-.217a11.023,11.023,0,0,1,1.112-.16,5.218,5.218,0,0,0,.933-.16,1.43,1.43,0,0,0,.641-.349.96.96,0,0,0,.236-.707,1.1,1.1,0,0,0-.2-.679,1.328,1.328,0,0,0-.49-.405,2.114,2.114,0,0,0-.65-.188,5.209,5.209,0,0,0-.679-.047,2.7,2.7,0,0,0-1.489.377,1.47,1.47,0,0,0-.66,1.169H81.83a3.234,3.234,0,0,1,.452-1.565,3.125,3.125,0,0,1,1.009-1,4.127,4.127,0,0,1,1.386-.528,8.251,8.251,0,0,1,1.583-.151,6.671,6.671,0,0,1,1.414.151,4.017,4.017,0,0,1,1.254.49,2.716,2.716,0,0,1,.9.877,2.4,2.4,0,0,1,.339,1.31ZM88.013-13.48a2.609,2.609,0,0,1-1.206.386q-.716.066-1.433.2a4.581,4.581,0,0,0-.66.16,1.989,1.989,0,0,0-.565.283,1.24,1.24,0,0,0-.386.471,1.611,1.611,0,0,0-.141.707.9.9,0,0,0,.207.6,1.507,1.507,0,0,0,.5.386,2.314,2.314,0,0,0,.641.2,3.971,3.971,0,0,0,.632.057,3.5,3.5,0,0,0,.773-.094,2.57,2.57,0,0,0,.782-.32,2.061,2.061,0,0,0,.613-.575,1.454,1.454,0,0,0,.245-.858Z" transform="translate(10.652 108.069)"/>
    <path id="Path_92" data-name="Path 92" class="cls-2" d="M91.541-18.344h2.036v1.433l.038.038A3.6,3.6,0,0,1,94.9-18.146a3.416,3.416,0,0,1,1.753-.462,3.643,3.643,0,0,1,2.526.829,3.175,3.175,0,0,1,.924,2.488V-8.6H97.95v-6.126a2.649,2.649,0,0,0-.49-1.668,1.78,1.78,0,0,0-1.414-.518,2.335,2.335,0,0,0-.98.2,2.127,2.127,0,0,0-.735.547,2.569,2.569,0,0,0-.471.82,2.927,2.927,0,0,0-.17,1V-8.6H91.541Z" transform="translate(11.969 108.069)"/>
    <path id="Path_93" data-name="Path 93" class="cls-2" d="M109.667-10.766a1.128,1.128,0,0,0,.1.565.436.436,0,0,0,.4.17h.226a1.411,1.411,0,0,0,.3-.038v1.489c-.076.025-.173.053-.293.085s-.242.06-.367.085-.251.044-.377.057-.233.019-.321.019a2.066,2.066,0,0,1-1.092-.264,1.314,1.314,0,0,1-.567-.924,3.789,3.789,0,0,1-1.574.9,6.193,6.193,0,0,1-1.8.283,4.42,4.42,0,0,1-1.263-.179,3.332,3.332,0,0,1-1.065-.528,2.53,2.53,0,0,1-.735-.886,2.731,2.731,0,0,1-.273-1.254,2.9,2.9,0,0,1,.329-1.47,2.446,2.446,0,0,1,.867-.886A3.925,3.925,0,0,1,103.38-14q.67-.141,1.348-.217a11.021,11.021,0,0,1,1.113-.16,5.22,5.22,0,0,0,.933-.16,1.43,1.43,0,0,0,.641-.349.96.96,0,0,0,.235-.707,1.1,1.1,0,0,0-.2-.679,1.331,1.331,0,0,0-.49-.405,2.118,2.118,0,0,0-.651-.188,5.2,5.2,0,0,0-.678-.047,2.7,2.7,0,0,0-1.489.377,1.47,1.47,0,0,0-.659,1.169h-2.15a3.248,3.248,0,0,1,.452-1.565,3.135,3.135,0,0,1,1.009-1,4.136,4.136,0,0,1,1.386-.528,8.239,8.239,0,0,1,1.583-.151,6.669,6.669,0,0,1,1.413.151,4.012,4.012,0,0,1,1.254.49,2.715,2.715,0,0,1,.9.877,2.4,2.4,0,0,1,.339,1.31Zm-2.15-2.714a2.607,2.607,0,0,1-1.207.386q-.716.066-1.433.2a4.573,4.573,0,0,0-.659.16,1.98,1.98,0,0,0-.565.283,1.233,1.233,0,0,0-.387.471,1.617,1.617,0,0,0-.141.707.9.9,0,0,0,.207.6,1.519,1.519,0,0,0,.5.386,2.307,2.307,0,0,0,.641.2,3.977,3.977,0,0,0,.631.057,3.5,3.5,0,0,0,.773-.094,2.569,2.569,0,0,0,.782-.32,2.064,2.064,0,0,0,.613-.575,1.458,1.458,0,0,0,.244-.858Z" transform="translate(13.202 108.069)"/>
    <path id="Path_94" data-name="Path 94" class="cls-2" d="M120.11-9.107a4.151,4.151,0,0,1-1.234,3.289,5.226,5.226,0,0,1-3.554,1.084,7.447,7.447,0,0,1-1.48-.151,4.394,4.394,0,0,1-1.357-.509,3.266,3.266,0,0,1-1.027-.943,2.866,2.866,0,0,1-.491-1.433h2.15a1.717,1.717,0,0,0,.32.735,1.651,1.651,0,0,0,.537.443,2.04,2.04,0,0,0,.689.207,6.39,6.39,0,0,0,.792.047,2.507,2.507,0,0,0,1.9-.641,2.6,2.6,0,0,0,.6-1.847v-1.489h-.037A3.272,3.272,0,0,1,116.69-9.05,3.316,3.316,0,0,1,115-8.6,4.452,4.452,0,0,1,113.014-9a3.769,3.769,0,0,1-1.357-1.112,4.606,4.606,0,0,1-.782-1.631,7.668,7.668,0,0,1-.245-1.979,5.746,5.746,0,0,1,.3-1.866,4.75,4.75,0,0,1,.867-1.555,4.14,4.14,0,0,1,1.385-1.065,4.216,4.216,0,0,1,1.857-.4,3.735,3.735,0,0,1,1.7.386,2.626,2.626,0,0,1,1.188,1.216h.037v-1.338h2.148Zm-4.768-1.188a2.372,2.372,0,0,0,1.216-.292,2.388,2.388,0,0,0,.811-.773,3.4,3.4,0,0,0,.452-1.093,5.5,5.5,0,0,0,.141-1.235,4.8,4.8,0,0,0-.15-1.206,3.23,3.23,0,0,0-.462-1.037,2.224,2.224,0,0,0-.811-.716,2.528,2.528,0,0,0-1.2-.264,2.26,2.26,0,0,0-1.206.3,2.4,2.4,0,0,0-.792.782,3.377,3.377,0,0,0-.434,1.093,5.747,5.747,0,0,0-.132,1.216,4.621,4.621,0,0,0,.152,1.178,3.265,3.265,0,0,0,.461,1.027,2.475,2.475,0,0,0,.792.735A2.253,2.253,0,0,0,115.342-10.294Z" transform="translate(14.464 108.069)"/>
    <path id="Path_95" data-name="Path 95" class="cls-2" d="M128.011-14.329a3.44,3.44,0,0,0-.217-.98,2.607,2.607,0,0,0-.49-.82,2.425,2.425,0,0,0-.754-.565,2.221,2.221,0,0,0-.989-.217,2.589,2.589,0,0,0-1.028.2,2.358,2.358,0,0,0-.792.547,2.72,2.72,0,0,0-.528.82A2.874,2.874,0,0,0,123-14.329ZM123-12.915a3.76,3.76,0,0,0,.159,1.093,2.705,2.705,0,0,0,.482.924,2.3,2.3,0,0,0,.81.632,2.677,2.677,0,0,0,1.169.236,2.58,2.58,0,0,0,1.517-.405,2.4,2.4,0,0,0,.858-1.216h2.035a4.042,4.042,0,0,1-.585,1.414,4.065,4.065,0,0,1-1,1.046,4.318,4.318,0,0,1-1.311.641,5.273,5.273,0,0,1-1.517.217,5.156,5.156,0,0,1-2.035-.377,4.2,4.2,0,0,1-1.5-1.056,4.493,4.493,0,0,1-.924-1.621,6.6,6.6,0,0,1-.311-2.074,5.881,5.881,0,0,1,.33-1.97,5.017,5.017,0,0,1,.943-1.64,4.5,4.5,0,0,1,1.479-1.122,4.485,4.485,0,0,1,1.961-.415,4.365,4.365,0,0,1,2.064.481,4.522,4.522,0,0,1,1.517,1.272,5.163,5.163,0,0,1,.877,1.819,5.6,5.6,0,0,1,.141,2.121Z" transform="translate(15.8 108.069)"/>
    <path id="Path_96" data-name="Path 96" class="cls-2" d="M130.867-18.344H132.9v1.357h.057a5.428,5.428,0,0,1,.528-.66,2.876,2.876,0,0,1,.631-.509,3.2,3.2,0,0,1,.8-.33,3.969,3.969,0,0,1,1.037-.123,3.528,3.528,0,0,1,1.649.4,2.24,2.24,0,0,1,1.084,1.225,4.324,4.324,0,0,1,1.263-1.188,3.4,3.4,0,0,1,1.791-.434,3.52,3.52,0,0,1,2.4.754,3.217,3.217,0,0,1,.858,2.526V-8.6h-2.15v-5.693q0-.584-.037-1.065a2.162,2.162,0,0,0-.217-.829,1.236,1.236,0,0,0-.537-.537,2.122,2.122,0,0,0-.98-.188,1.819,1.819,0,0,0-1.583.679,3.244,3.244,0,0,0-.491,1.923V-8.6h-2.148v-6.258a2.659,2.659,0,0,0-.368-1.536,1.547,1.547,0,0,0-1.348-.518,1.975,1.975,0,0,0-.8.17,1.99,1.99,0,0,0-.678.49,2.467,2.467,0,0,0-.472.792,3.025,3.025,0,0,0-.179,1.075V-8.6h-2.15Z" transform="translate(17.11 108.069)"/>
    <path id="Path_97" data-name="Path 97" class="cls-2" d="M152.451-14.329a3.479,3.479,0,0,0-.217-.98,2.629,2.629,0,0,0-.49-.82,2.438,2.438,0,0,0-.754-.565,2.222,2.222,0,0,0-.991-.217,2.579,2.579,0,0,0-1.027.2,2.347,2.347,0,0,0-.792.547,2.7,2.7,0,0,0-.528.82,2.851,2.851,0,0,0-.217,1.018Zm-5.015,1.414a3.723,3.723,0,0,0,.161,1.093,2.683,2.683,0,0,0,.481.924,2.319,2.319,0,0,0,.811.632,2.672,2.672,0,0,0,1.168.236,2.578,2.578,0,0,0,1.517-.405,2.4,2.4,0,0,0,.858-1.216h2.035a4.061,4.061,0,0,1-.583,1.414,4.069,4.069,0,0,1-1,1.046,4.3,4.3,0,0,1-1.311.641,5.268,5.268,0,0,1-1.517.217,5.159,5.159,0,0,1-2.035-.377,4.209,4.209,0,0,1-1.5-1.056,4.477,4.477,0,0,1-.924-1.621,6.565,6.565,0,0,1-.311-2.074,5.852,5.852,0,0,1,.33-1.97,5.035,5.035,0,0,1,.942-1.64,4.5,4.5,0,0,1,1.48-1.122,4.484,4.484,0,0,1,1.96-.415,4.37,4.37,0,0,1,2.065.481,4.534,4.534,0,0,1,1.517,1.272,5.142,5.142,0,0,1,.876,1.819,5.575,5.575,0,0,1,.141,2.121Z" transform="translate(18.996 108.069)"/>
    <path id="Path_98" data-name="Path 98" class="cls-2" d="M155.307-18.344h2.035v1.433l.038.038a3.609,3.609,0,0,1,1.281-1.272,3.418,3.418,0,0,1,1.754-.462,3.645,3.645,0,0,1,2.526.829,3.177,3.177,0,0,1,.924,2.488V-8.6h-2.15v-6.126a2.652,2.652,0,0,0-.49-1.668,1.782,1.782,0,0,0-1.415-.518,2.338,2.338,0,0,0-.98.2,2.133,2.133,0,0,0-.735.547,2.565,2.565,0,0,0-.472.82,2.928,2.928,0,0,0-.17,1V-8.6h-2.148Z" transform="translate(20.306 108.069)"/>
    <path id="Path_99" data-name="Path 99" class="cls-2" d="M164.343-18.036h1.62v-2.922h2.15v2.922h1.941v1.6h-1.941v5.2a5.1,5.1,0,0,0,.028.584,1,1,0,0,0,.131.415.634.634,0,0,0,.312.255,1.526,1.526,0,0,0,.565.085c.15,0,.3,0,.452-.009a2.256,2.256,0,0,0,.452-.066v1.659l-.7.075a6.3,6.3,0,0,1-.7.038,4.748,4.748,0,0,1-1.366-.16,1.821,1.821,0,0,1-.811-.471,1.618,1.618,0,0,1-.4-.782,5.889,5.889,0,0,1-.123-1.075v-5.749h-1.62Z" transform="translate(21.487 107.762)"/>
    <path id="Path_100" data-name="Path 100" class="cls-2" d="M176.329-21.658h5.938a5.639,5.639,0,0,1,2.337.415,3.686,3.686,0,0,1,1.4,1.037,3.526,3.526,0,0,1,.669,1.357,5.8,5.8,0,0,1,.179,1.357,5.682,5.682,0,0,1-.179,1.348A3.533,3.533,0,0,1,186-14.8a3.607,3.607,0,0,1-1.4,1.027,5.756,5.756,0,0,1-2.337.405h-3.581V-8.2h-2.356Zm2.356,6.372h3.45a3.069,3.069,0,0,0,.81-.113,2.325,2.325,0,0,0,.764-.368,1.893,1.893,0,0,0,.565-.679,2.326,2.326,0,0,0,.216-1.065A2.757,2.757,0,0,0,184.3-18.6a1.745,1.745,0,0,0-.509-.688,1.813,1.813,0,0,0-.736-.349,3.978,3.978,0,0,0-.885-.094h-3.487Z" transform="translate(23.054 107.67)"/>
    <path id="Path_101" data-name="Path 101" class="cls-2" d="M187.515-18.344h2.017v1.885h.037a2.185,2.185,0,0,1,.367-.773,3.576,3.576,0,0,1,.66-.688,3.329,3.329,0,0,1,.857-.5,2.574,2.574,0,0,1,.962-.188,4.652,4.652,0,0,1,.518.019l.292.038v2.074q-.226-.038-.461-.066a3.871,3.871,0,0,0-.462-.028,2.467,2.467,0,0,0-1.027.217,2.362,2.362,0,0,0-.839.641,3.139,3.139,0,0,0-.565,1.046,4.537,4.537,0,0,0-.207,1.433V-8.6h-2.15Z" transform="translate(24.517 108.069)"/>
    <path id="Path_102" data-name="Path 102" class="cls-2" d="M197.937-8.334a5.313,5.313,0,0,1-2.084-.386,4.45,4.45,0,0,1-1.546-1.065,4.568,4.568,0,0,1-.961-1.621,6.255,6.255,0,0,1-.33-2.074,6.2,6.2,0,0,1,.33-2.055,4.569,4.569,0,0,1,.961-1.621,4.45,4.45,0,0,1,1.546-1.065,5.313,5.313,0,0,1,2.084-.386,5.307,5.307,0,0,1,2.083.386,4.451,4.451,0,0,1,1.546,1.065,4.569,4.569,0,0,1,.961,1.621,6.2,6.2,0,0,1,.33,2.055,6.255,6.255,0,0,1-.33,2.074,4.569,4.569,0,0,1-.961,1.621A4.45,4.45,0,0,1,200.02-8.72,5.307,5.307,0,0,1,197.937-8.334Zm0-1.7a2.465,2.465,0,0,0,1.244-.3,2.623,2.623,0,0,0,.867-.792,3.443,3.443,0,0,0,.5-1.1,4.907,4.907,0,0,0,.161-1.254,4.943,4.943,0,0,0-.161-1.244,3.323,3.323,0,0,0-.5-1.1,2.663,2.663,0,0,0-.867-.782,2.465,2.465,0,0,0-1.244-.3,2.466,2.466,0,0,0-1.245.3,2.664,2.664,0,0,0-.867.782,3.323,3.323,0,0,0-.5,1.1,4.945,4.945,0,0,0-.161,1.244,4.909,4.909,0,0,0,.161,1.254,3.442,3.442,0,0,0,.5,1.1,2.623,2.623,0,0,0,.867.792A2.466,2.466,0,0,0,197.937-10.031Z" transform="translate(25.236 108.069)"/>
    <path id="Path_103" data-name="Path 103" class="cls-2" d="M202.769-18.036h1.621v-2.922h2.148v2.922h1.941v1.6h-1.941v5.2a5.1,5.1,0,0,0,.028.584,1.016,1.016,0,0,0,.132.415.631.631,0,0,0,.311.255,1.53,1.53,0,0,0,.565.085c.15,0,.3,0,.452-.009a2.245,2.245,0,0,0,.452-.066v1.659l-.7.075a6.278,6.278,0,0,1-.7.038,4.756,4.756,0,0,1-1.367-.16,1.821,1.821,0,0,1-.811-.471,1.628,1.628,0,0,1-.4-.782,5.891,5.891,0,0,1-.122-1.075v-5.749h-1.621Z" transform="translate(26.511 107.762)"/>
    <path id="Path_104" data-name="Path 104" class="cls-2" d="M214.041-8.334a5.307,5.307,0,0,1-2.083-.386,4.444,4.444,0,0,1-1.547-1.065,4.568,4.568,0,0,1-.961-1.621,6.255,6.255,0,0,1-.329-2.074,6.2,6.2,0,0,1,.329-2.055,4.569,4.569,0,0,1,.961-1.621,4.444,4.444,0,0,1,1.547-1.065,5.307,5.307,0,0,1,2.083-.386,5.307,5.307,0,0,1,2.083.386,4.451,4.451,0,0,1,1.546,1.065,4.552,4.552,0,0,1,.961,1.621,6.2,6.2,0,0,1,.33,2.055,6.255,6.255,0,0,1-.33,2.074,4.552,4.552,0,0,1-.961,1.621,4.45,4.45,0,0,1-1.546,1.065A5.307,5.307,0,0,1,214.041-8.334Zm0-1.7a2.465,2.465,0,0,0,1.244-.3,2.623,2.623,0,0,0,.867-.792,3.469,3.469,0,0,0,.5-1.1,4.958,4.958,0,0,0,.159-1.254,5,5,0,0,0-.159-1.244,3.348,3.348,0,0,0-.5-1.1,2.663,2.663,0,0,0-.867-.782,2.465,2.465,0,0,0-1.244-.3,2.469,2.469,0,0,0-1.245.3,2.66,2.66,0,0,0-.866.782,3.3,3.3,0,0,0-.5,1.1,4.943,4.943,0,0,0-.161,1.244,4.907,4.907,0,0,0,.161,1.254,3.42,3.42,0,0,0,.5,1.1,2.62,2.62,0,0,0,.866.792A2.469,2.469,0,0,0,214.041-10.031Z" transform="translate(27.342 108.069)"/>
    <path id="Path_105" data-name="Path 105" class="cls-2" d="M226.373-15.083a2.017,2.017,0,0,0-.726-1.367,2.368,2.368,0,0,0-1.5-.462,3.093,3.093,0,0,0-.886.141,2.107,2.107,0,0,0-.867.528,2.971,2.971,0,0,0-.659,1.074,5.106,5.106,0,0,0-.263,1.8,5.23,5.23,0,0,0,.141,1.206,3.275,3.275,0,0,0,.452,1.075,2.444,2.444,0,0,0,.8.763,2.28,2.28,0,0,0,1.188.292,2.162,2.162,0,0,0,1.555-.584,2.718,2.718,0,0,0,.763-1.64h2.15a4.718,4.718,0,0,1-1.443,2.912,4.4,4.4,0,0,1-3.025,1.009,4.988,4.988,0,0,1-2.027-.386,4.3,4.3,0,0,1-1.479-1.056,4.488,4.488,0,0,1-.915-1.593,6.235,6.235,0,0,1-.311-2,6.821,6.821,0,0,1,.3-2.055,4.7,4.7,0,0,1,.9-1.668,4.235,4.235,0,0,1,1.5-1.112,5.061,5.061,0,0,1,2.1-.405,5.885,5.885,0,0,1,1.612.217,4.241,4.241,0,0,1,1.357.65,3.457,3.457,0,0,1,.97,1.093,3.741,3.741,0,0,1,.453,1.565Z" transform="translate(28.675 108.069)"/>
    <path id="Path_106" data-name="Path 106" class="cls-2" d="M233.862-8.334a5.307,5.307,0,0,1-2.083-.386,4.44,4.44,0,0,1-1.546-1.065,4.552,4.552,0,0,1-.961-1.621,6.226,6.226,0,0,1-.33-2.074,6.166,6.166,0,0,1,.33-2.055,4.553,4.553,0,0,1,.961-1.621,4.44,4.44,0,0,1,1.546-1.065,5.307,5.307,0,0,1,2.083-.386,5.307,5.307,0,0,1,2.083.386,4.44,4.44,0,0,1,1.546,1.065,4.555,4.555,0,0,1,.962,1.621,6.2,6.2,0,0,1,.329,2.055,6.255,6.255,0,0,1-.329,2.074,4.554,4.554,0,0,1-.962,1.621,4.44,4.44,0,0,1-1.546,1.065A5.307,5.307,0,0,1,233.862-8.334Zm0-1.7a2.469,2.469,0,0,0,1.245-.3,2.619,2.619,0,0,0,.866-.792,3.421,3.421,0,0,0,.5-1.1,4.907,4.907,0,0,0,.161-1.254,4.943,4.943,0,0,0-.161-1.244,3.3,3.3,0,0,0-.5-1.1,2.66,2.66,0,0,0-.866-.782,2.469,2.469,0,0,0-1.245-.3,2.465,2.465,0,0,0-1.244.3,2.664,2.664,0,0,0-.867.782,3.348,3.348,0,0,0-.5,1.1,5,5,0,0,0-.159,1.244,4.959,4.959,0,0,0,.159,1.254,3.469,3.469,0,0,0,.5,1.1,2.623,2.623,0,0,0,.867.792A2.465,2.465,0,0,0,233.862-10.031Z" transform="translate(29.933 108.069)"/>
    <path id="Path_107" data-name="Path 107" class="cls-2" d="M239.612-8.2h2.149V-21.658h-2.149Z" transform="translate(31.328 107.67)"/>
    <path id="Path_108" data-name="Path 108" class="cls-2" d="M245.594-11.727a1.62,1.62,0,0,0,.717,1.319,2.821,2.821,0,0,0,1.489.377,5.738,5.738,0,0,0,.688-.047,2.994,2.994,0,0,0,.726-.179,1.367,1.367,0,0,0,.556-.386.927.927,0,0,0,.2-.669.948.948,0,0,0-.3-.679,2.073,2.073,0,0,0-.726-.424,7.009,7.009,0,0,0-1.007-.273q-.566-.113-1.15-.245a10.772,10.772,0,0,1-1.16-.32,3.748,3.748,0,0,1-1-.509,2.346,2.346,0,0,1-.707-.82,2.614,2.614,0,0,1-.265-1.235,2.215,2.215,0,0,1,.387-1.329,2.965,2.965,0,0,1,.98-.867,4.266,4.266,0,0,1,1.32-.462,7.748,7.748,0,0,1,1.385-.132,6.327,6.327,0,0,1,1.442.16,3.923,3.923,0,0,1,1.245.518,3.047,3.047,0,0,1,.924.933,3.231,3.231,0,0,1,.461,1.386h-2.243a1.337,1.337,0,0,0-.707-1.037,2.934,2.934,0,0,0-1.272-.264,4.541,4.541,0,0,0-.537.038,2.477,2.477,0,0,0-.585.141,1.242,1.242,0,0,0-.462.3.721.721,0,0,0-.188.518.82.82,0,0,0,.273.641,2.177,2.177,0,0,0,.717.405,7.016,7.016,0,0,0,1.009.273q.565.113,1.168.245a11.905,11.905,0,0,1,1.15.32,3.7,3.7,0,0,1,1.009.509,2.475,2.475,0,0,1,.717.811,2.448,2.448,0,0,1,.273,1.206,2.616,2.616,0,0,1-.4,1.47,3.126,3.126,0,0,1-1.027.98,4.664,4.664,0,0,1-1.4.547,7.111,7.111,0,0,1-1.527.17,6.641,6.641,0,0,1-1.706-.207,3.983,3.983,0,0,1-1.358-.631,3.069,3.069,0,0,1-.9-1.056,3.363,3.363,0,0,1-.348-1.5Z" transform="translate(31.829 108.069)"/>
  </g>
</svg>
