<?xml version="1.0" encoding="UTF-8" standalone="no"?>
<!DOCTYPE svg PUBLIC "-//W3C//DTD SVG 1.1//EN" "http://www.w3.org/Graphics/SVG/1.1/DTD/svg11.dtd">
<svg width="100%" height="100%" viewBox="0 0 26 52" version="1.1" xmlns="http://www.w3.org/2000/svg" xmlns:xlink="http://www.w3.org/1999/xlink" xml:space="preserve" style="fill-rule:evenodd;clip-rule:evenodd;stroke-linejoin:round;stroke-miterlimit:1.41421;">
    <g id="Group_8">
        <g id="Path_7" transform="matrix(1,0,0,1,-35.239,280.718)">
            <path d="M46.469,-265.753C46.469,-265.753 46.47,-265.753 46.47,-265.753C48.846,-265.753 50.801,-267.708 50.802,-270.084C50.801,-272.461 48.846,-274.416 46.469,-274.416C44.093,-274.416 42.137,-272.46 42.137,-270.084C42.137,-267.708 44.092,-265.753 46.468,-265.753C46.468,-265.753 46.469,-265.753 46.469,-265.753Z" style="fill:white;fill-rule:nonzero;"/>
        </g>
        <g id="Path_8" transform="matrix(1,0,0,1,0,232.283)">
            <path d="M17.425,-196.155L19.6,-190.46C19.944,-189.559 20.813,-188.961 21.777,-188.96C22.061,-188.96 22.342,-189.012 22.607,-189.113C23.508,-189.457 24.107,-190.326 24.107,-191.29C24.107,-191.574 24.055,-191.856 23.954,-192.121L21.465,-198.649C21.261,-199.185 20.865,-199.627 20.355,-199.89L15.538,-202.372L15.538,-211.252L18.049,-209.089C18.592,-208.655 19.36,-208.625 19.935,-209.017L24.557,-212.417C25.052,-212.781 25.344,-213.359 25.344,-213.973C25.344,-214.384 25.213,-214.785 24.969,-215.117C24.606,-215.612 24.027,-215.905 23.413,-215.905C23.001,-215.905 22.6,-215.774 22.269,-215.53L19.345,-213.382C19.231,-213.304 19.078,-213.312 18.972,-213.401L15.715,-216.346C15.595,-216.443 15.448,-216.5 15.294,-216.508L7.14,-216.508C6.982,-216.502 6.827,-216.464 6.685,-216.396L0.922,-213.351C0.307,-212.989 -0.048,-212.304 0.012,-211.593L0.717,-206.228C0.855,-205.178 1.833,-204.428 2.883,-204.566C3.933,-204.704 4.683,-205.681 4.545,-206.731L4.07,-210.338C4.058,-210.479 4.13,-210.615 4.254,-210.685L6.9,-212.02L6.9,-201.653C6.891,-201.525 6.893,-201.397 6.906,-201.269L7.806,-192.638L5.191,-184.067C5.124,-183.846 5.089,-183.617 5.089,-183.386C5.089,-182.364 5.762,-181.456 6.74,-181.158C6.961,-181.091 7.19,-181.057 7.421,-181.058C8.443,-181.059 9.351,-181.731 9.649,-182.709L12.403,-191.733C12.494,-192.032 12.524,-192.345 12.492,-192.656L11.817,-199.093C11.93,-199.005 12.051,-198.927 12.179,-198.861L17.425,-196.155Z" style="fill:white;fill-rule:nonzero;"/>
        </g>
        <g id="Path_9" transform="matrix(1,0,0,1,-87.866,299.793)">
            <path d="M110.187,-295.89L108.979,-297.226L105.067,-293.69L106.275,-292.354L110.187,-295.89Z" style="fill:white;"/>
        </g>
        <g id="Path_10" transform="matrix(1,0,0,1,-96.82,269.134)">
            <path d="M121.041,-258.5L121.132,-260.3L115.866,-260.565L115.775,-258.765L121.041,-258.5Z" style="fill:white;"/>
        </g>
        <g id="Path_11" transform="matrix(1,0,0,1,-73.263,312.904)">
            <path d="M87.871,-312.9L89.671,-312.809L89.406,-307.542L87.606,-307.633L87.871,-312.9Z" style="fill:white;"/>
        </g>
    </g>
</svg>
