<svg xmlns="http://www.w3.org/2000/svg" viewBox="-763 178 122 122">
  <defs>
    <style>
      .cls-1 {
        fill: #6aa224;
        stroke: #95989a;
      }

      .cls-2 {
        fill: #fff;
      }

      .cls-3 {
        stroke: none;
      }

      .cls-4 {
        fill: none;
      }
    </style>
  </defs>
  <g id="Group_12" data-name="Group 12" transform="translate(-799 144)">
    <g id="Ellipse_1" data-name="Ellipse 1" class="cls-1" transform="translate(36 34)">
      <circle class="cls-3" cx="61" cy="61" r="61"/>
      <circle class="cls-4" cx="61" cy="61" r="60.5"/>
    </g>
    <g id="Group_11" data-name="Group 11" transform="translate(53 59)">
      <path id="Path_17" data-name="Path 17" class="cls-2" d="M50.531,38.034a.48.48,0,0,0,0,.68l19.61,19.61.272.272.073.167a4.776,4.776,0,0,1-1.025,5.2l-1.182,1.182a4.745,4.745,0,0,1-4.625,1.224,1.952,1.952,0,0,1-.23-.073,1.422,1.422,0,0,1-.45-.3l-.22-.22L43.1,46.133a.48.48,0,0,0-.68,0l-.262.262a.48.48,0,0,0,0,.68L61.8,66.716l.22.22a1.422,1.422,0,0,1,.3.45c.021.073.052.157.073.23a4.733,4.733,0,0,1-1.224,4.615L59.99,73.413a4.721,4.721,0,0,1-2.5,1.308,5.668,5.668,0,0,0-.366-.994,5.41,5.41,0,0,0-.6-1,5.88,5.88,0,0,0-.576-.67L54.8,70.9a5.893,5.893,0,0,0-2.836-1.58,5.808,5.808,0,0,0-1.35-.157c-.094,0-.2.01-.293.01a6,6,0,0,0-1.141.167l-.042-.042a6.018,6.018,0,0,0,.167-1.13,5.689,5.689,0,0,0-.146-1.632A5.856,5.856,0,0,0,47.58,63.7l-1.151-1.151a5.99,5.99,0,0,0-2.836-1.58,6.125,6.125,0,0,0-1.632-.146,6.018,6.018,0,0,0-1.13.167l-.042-.042a6.018,6.018,0,0,0,.167-1.13,5.656,5.656,0,0,0-.146-1.632,5.856,5.856,0,0,0-1.58-2.836L38.079,54.2a5.9,5.9,0,0,0-5.661-1.549,5.929,5.929,0,0,0-1.549-5.661L29.718,45.84a5.878,5.878,0,0,0-2.522-1.5,5.666,5.666,0,0,0-1.517-.23h-.146a5.894,5.894,0,0,0-4.175,1.737s-8.288,8.308-8.444,8.507a5.233,5.233,0,0,0-.429.638.144.144,0,0,1-.209.052A25.658,25.658,0,0,1,25.637,7.5,25.423,25.423,0,0,1,39.7,11.7a.513.513,0,0,1,.084.816C35.138,17.315,23.1,29.8,20.269,32.729a.831.831,0,0,0-.01,1.151,10.619,10.619,0,0,0,7.325,2.961h.094c.126,0,.262.01.387.01,3.788,0,7.743-1.737,11.762-5.159l.031-.031c7.733-7.482,8.654-9.03,10.066-9.03a3.152,3.152,0,0,1,2.156,1.046l25.543,25.49a4.965,4.965,0,0,1,.712.91,4.794,4.794,0,0,1,.481,1.088,5.15,5.15,0,0,1,.178.889c.01.115.021.23.021.356v.869a4.749,4.749,0,0,1-1.287,2.365l-1.182,1.182a4.79,4.79,0,0,1-4.657,1.214.246.246,0,0,0-.084-.021,1.347,1.347,0,0,1-.314-.251l-.408-.408L51.462,37.772a.48.48,0,0,0-.68,0Z" transform="translate(0 -6.715)"/>
      <g id="Group_10" data-name="Group 10" transform="translate(13.941)">
        <g id="Group_9" data-name="Group 9" transform="translate(0 38.508)">
          <path id="Path_18" data-name="Path 18" class="cls-2" d="M377.329,625.28l-1.151-1.151a4.589,4.589,0,0,1-.68-5.63,4.192,4.192,0,0,1,.68-.868l1.193-1.193,3.139-3.129,2.47-2.47a4.323,4.323,0,0,1,.889-.691,4.855,4.855,0,0,1,.942-.429c.1-.031.22-.063.335-.094a4.76,4.76,0,0,1,1.088-.126,4.859,4.859,0,0,1,1.172.146,4.6,4.6,0,0,1,1.622.8c.157.126.314.262.46.4l1.015,1.015.136.136a4.532,4.532,0,0,1,.68.869,4.459,4.459,0,0,1,.575,1.507c.01.031.01.063.021.1a4.632,4.632,0,0,1-1.277,4.029l-6.8,6.8a4.55,4.55,0,0,1-3.244,1.339A4.671,4.671,0,0,1,377.329,625.28Z" transform="translate(-349.55 -584.229)"/>
          <path id="Path_19" data-name="Path 19" class="cls-2" d="M298.529,546.58l-1.151-1.151a4.589,4.589,0,0,1-.68-5.63,4.189,4.189,0,0,1,.68-.869l1.193-1.193,3.139-3.129,2.469-2.469a4.322,4.322,0,0,1,.889-.691,4.86,4.86,0,0,1,.942-.429c.1-.031.22-.063.335-.094a4.756,4.756,0,0,1,1.088-.126,4.856,4.856,0,0,1,1.172.147,4.6,4.6,0,0,1,1.622.8c.157.126.314.262.46.4l1.015,1.015.136.136a4.527,4.527,0,0,1,.68.869,4.46,4.46,0,0,1,.576,1.507c.01.031.01.063.021.1a4.632,4.632,0,0,1-1.277,4.029l-6.8,6.8a4.55,4.55,0,0,1-3.244,1.339A4.716,4.716,0,0,1,298.529,546.58Z" transform="translate(-278.996 -513.765)"/>
          <path id="Path_20" data-name="Path 20" class="cls-2" d="M217.129,465.18l-1.151-1.151a4.589,4.589,0,0,1-.68-5.63,4.189,4.189,0,0,1,.68-.869l1.193-1.193,3.139-3.129,2.47-2.47a4.324,4.324,0,0,1,.889-.691,4.859,4.859,0,0,1,.942-.429c.1-.031.22-.063.335-.094a4.756,4.756,0,0,1,1.088-.126,4.859,4.859,0,0,1,1.172.146,4.6,4.6,0,0,1,1.622.8c.157.126.314.262.46.4l1.015,1.015.136.136a4.527,4.527,0,0,1,.68.869,4.46,4.46,0,0,1,.576,1.507c.01.031.01.063.021.1a4.632,4.632,0,0,1-1.277,4.029l-6.8,6.8a4.55,4.55,0,0,1-3.244,1.339A4.735,4.735,0,0,1,217.129,465.18Z" transform="translate(-206.114 -440.882)"/>
          <path id="Path_21" data-name="Path 21" class="cls-2" d="M135.729,383.78l-1.151-1.151a4.589,4.589,0,0,1-.68-5.63,4.19,4.19,0,0,1,.68-.869l1.193-1.193,3.139-3.129,2.47-2.469a4.323,4.323,0,0,1,.889-.691,4.862,4.862,0,0,1,.942-.429c.1-.031.22-.063.335-.094a4.76,4.76,0,0,1,1.088-.126,4.862,4.862,0,0,1,1.172.146,4.6,4.6,0,0,1,1.622.8c.157.126.314.262.46.4l1.015,1.015.136.136a4.526,4.526,0,0,1,.68.868,4.461,4.461,0,0,1,.576,1.507c.01.031.01.063.021.1A4.632,4.632,0,0,1,149.039,377l-6.8,6.8a4.55,4.55,0,0,1-3.244,1.339A4.69,4.69,0,0,1,135.729,383.78Z" transform="translate(-133.231 -368)"/>
        </g>
        <path id="Path_22" data-name="Path 22" class="cls-2" d="M265.166,43.98c-.084-.251-.178-.492-.283-.732a5.2,5.2,0,0,0-.586-.984,5.954,5.954,0,0,0-.628-.732l-25.543-25.5a5.379,5.379,0,0,0-1.706-1.162,3.733,3.733,0,0,0-1.381-.272c-2.072,0-3.139,1.81-10.966,9.386-3.767,3.212-7.429,4.834-10.893,4.834-.146,0-.283,0-.429-.01a10.173,10.173,0,0,1-5.933-2.156.133.133,0,0,1-.01-.209L225.046,7.555l.743-.764.544-.45.6-.46.136-.1A26.356,26.356,0,0,1,242.93,0c6.456,0,12.965,2.742,19.317,8.141,15.843,13.457,9.407,27.74,3.192,35.892C265.344,44.169,265.218,44.148,265.166,43.98Z" transform="translate(-199.068)"/>
      </g>
    </g>
  </g>
</svg>
